PWD /Users/gpx/GitHub/curriculum-vitae
INPUT /usr/local/texlive/2014/texmf.cnf
INPUT /usr/local/texlive/2014/texmf-dist/web2c/texmf.cnf
INPUT /usr/local/texlive/2014/texmf-var/web2c/pdftex/pdflatex.fmt
INPUT /Users/gpx/GitHub/curriculum-vitae/cv_template_it.tex
OUTPUT /Users/gpx/GitHub/curriculum-vitae/cv_template_it.log
INPUT /usr/local/texlive/2014/texmf-dist/tex/latex/europecv/europecv.cls
INPUT /usr/local/texlive/2014/texmf-dist/tex/latex/europecv/europecv.cls
INPUT /usr/local/texlive/2014/texmf-dist/tex/latex/base/article.cls
INPUT /usr/local/texlive/2014/texmf-dist/tex/latex/base/article.cls
INPUT /usr/local/texlive/2014/texmf-dist/tex/latex/base/size10.clo
INPUT /usr/local/texlive/2014/texmf-dist/tex/latex/base/size10.clo
INPUT /usr/local/texlive/2014/texmf-dist/tex/latex/ucs/ucs.sty
INPUT /usr/local/texlive/2014/texmf-dist/tex/latex/ucs/ucs.sty
INPUT /usr/local/texlive/2014/texmf-dist/tex/latex/ucs/data/uni-global.def
INPUT /usr/local/texlive/2014/texmf-dist/tex/latex/ucs/data/uni-global.def
INPUT /usr/local/texlive/2014/texmf-dist/tex/latex/base/inputenc.sty
INPUT /usr/local/texlive/2014/texmf-dist/tex/latex/base/inputenc.sty
INPUT /usr/local/texlive/2014/texmf-dist/tex/latex/ucs/utf8x.def
INPUT /usr/local/texlive/2014/texmf-dist/tex/latex/ucs/utf8x.def
INPUT /usr/local/texlive/2014/texmf-dist/tex/latex/tools/array.sty
INPUT /usr/local/texlive/2014/texmf-dist/tex/latex/tools/array.sty
INPUT /usr/local/texlive/2014/texmf-dist/tex/latex/tools/longtable.sty
INPUT /usr/local/texlive/2014/texmf-dist/tex/latex/tools/longtable.sty
INPUT /usr/local/texlive/2014/texmf-dist/tex/latex/fancyhdr/fancyhdr.sty
INPUT /usr/local/texlive/2014/texmf-dist/tex/latex/fancyhdr/fancyhdr.sty
INPUT /usr/local/texlive/2014/texmf-dist/tex/latex/europecv/ecven.def
INPUT /usr/local/texlive/2014/texmf-dist/tex/latex/europecv/ecven.def
INPUT /usr/local/texlive/2014/texmf-dist/tex/latex/europecv/ecvit.def
INPUT /usr/local/texlive/2014/texmf-dist/tex/latex/europecv/ecvit.def
INPUT /usr/local/texlive/2014/texmf-dist/tex/latex/totpages/totpages.sty
INPUT /usr/local/texlive/2014/texmf-dist/tex/latex/totpages/totpages.sty
INPUT /usr/local/texlive/2014/texmf-dist/tex/latex/ms/everyshi.sty
INPUT /usr/local/texlive/2014/texmf-dist/tex/latex/ms/everyshi.sty
INPUT /usr/local/texlive/2014/texmf-dist/tex/latex/graphics/keyval.sty
INPUT /usr/local/texlive/2014/texmf-dist/tex/latex/graphics/keyval.sty
INPUT /usr/local/texlive/2014/texmf-dist/tex/latex/base/fontenc.sty
INPUT /usr/local/texlive/2014/texmf-dist/tex/latex/base/fontenc.sty
INPUT /usr/local/texlive/2014/texmf-dist/tex/latex/base/t1enc.def
INPUT /usr/local/texlive/2014/texmf-dist/tex/latex/base/t1enc.def
INPUT /usr/local/texlive/2014/texmf-dist/fonts/map/fontname/texfonts.map
INPUT /usr/local/texlive/2014/texmf-dist/fonts/map/fontname/texfonts.map
INPUT /usr/local/texlive/2014/texmf-dist/fonts/tfm/jknappen/ec/ecrm1000.tfm
INPUT /usr/local/texlive/2014/texmf-dist/tex/latex/graphics/graphicx.sty
INPUT /usr/local/texlive/2014/texmf-dist/tex/latex/graphics/graphicx.sty
INPUT /usr/local/texlive/2014/texmf-dist/tex/latex/graphics/graphics.sty
INPUT /usr/local/texlive/2014/texmf-dist/tex/latex/graphics/graphics.sty
INPUT /usr/local/texlive/2014/texmf-dist/tex/latex/graphics/trig.sty
INPUT /usr/local/texlive/2014/texmf-dist/tex/latex/graphics/trig.sty
INPUT /usr/local/texlive/2014/texmf-dist/tex/latex/latexconfig/graphics.cfg
INPUT /usr/local/texlive/2014/texmf-dist/tex/latex/latexconfig/graphics.cfg
INPUT /usr/local/texlive/2014/texmf-dist/tex/latex/pdftex-def/pdftex.def
INPUT /usr/local/texlive/2014/texmf-dist/tex/latex/pdftex-def/pdftex.def
INPUT /usr/local/texlive/2014/texmf-dist/tex/generic/oberdiek/infwarerr.sty
INPUT /usr/local/texlive/2014/texmf-dist/tex/generic/oberdiek/infwarerr.sty
INPUT /usr/local/texlive/2014/texmf-dist/tex/generic/oberdiek/ltxcmds.sty
INPUT /usr/local/texlive/2014/texmf-dist/tex/generic/oberdiek/ltxcmds.sty
INPUT /usr/local/texlive/2014/texmf-dist/tex/latex/geometry/geometry.sty
INPUT /usr/local/texlive/2014/texmf-dist/tex/latex/geometry/geometry.sty
INPUT /usr/local/texlive/2014/texmf-dist/tex/generic/oberdiek/ifpdf.sty
INPUT /usr/local/texlive/2014/texmf-dist/tex/generic/oberdiek/ifpdf.sty
INPUT /usr/local/texlive/2014/texmf-dist/tex/generic/oberdiek/ifvtex.sty
INPUT /usr/local/texlive/2014/texmf-dist/tex/generic/oberdiek/ifvtex.sty
INPUT /usr/local/texlive/2014/texmf-dist/tex/generic/ifxetex/ifxetex.sty
INPUT /usr/local/texlive/2014/texmf-dist/tex/generic/ifxetex/ifxetex.sty
INPUT /usr/local/texlive/2014/texmf-dist/tex/generic/babel/babel.sty
INPUT /usr/local/texlive/2014/texmf-dist/tex/generic/babel/babel.sty
INPUT /usr/local/texlive/2014/texmf-dist/tex/generic/babel-italian/italian.ldf
INPUT /usr/local/texlive/2014/texmf-dist/tex/generic/babel-italian/italian.ldf
INPUT /usr/local/texlive/2014/texmf-dist/tex/generic/babel/babel.def
INPUT /usr/local/texlive/2014/texmf-dist/tex/latex/etoolbox/etoolbox.sty
INPUT /usr/local/texlive/2014/texmf-dist/tex/latex/etoolbox/etoolbox.sty
INPUT /usr/local/texlive/2014/texmf-dist/tex/latex/etex-pkg/etex.sty
INPUT /usr/local/texlive/2014/texmf-dist/tex/latex/etex-pkg/etex.sty
INPUT /usr/local/texlive/2014/texmf-dist/tex/latex/natbib/bibentry.sty
INPUT /usr/local/texlive/2014/texmf-dist/tex/latex/natbib/bibentry.sty
INPUT /usr/local/texlive/2014/texmf-dist/tex/latex/url/url.sty
INPUT /usr/local/texlive/2014/texmf-dist/tex/latex/url/url.sty
INPUT /Users/gpx/GitHub/curriculum-vitae/cv_template_it.aux
INPUT /Users/gpx/GitHub/curriculum-vitae/cv_template_it.aux
OUTPUT /Users/gpx/GitHub/curriculum-vitae/cv_template_it.aux
INPUT /usr/local/texlive/2014/texmf-dist/tex/latex/psnfss/t1phv.fd
INPUT /usr/local/texlive/2014/texmf-dist/tex/latex/psnfss/t1phv.fd
INPUT /usr/local/texlive/2014/texmf-dist/fonts/tfm/adobe/helvetic/phvr8tn.tfm
INPUT /usr/local/texlive/2014/texmf-dist/tex/latex/ucs/ucsencs.def
INPUT /usr/local/texlive/2014/texmf-dist/tex/latex/ucs/ucsencs.def
INPUT /usr/local/texlive/2014/texmf-dist/tex/context/base/supp-pdf.mkii
INPUT /usr/local/texlive/2014/texmf-dist/tex/context/base/supp-pdf.mkii
INPUT /usr/local/texlive/2014/texmf-dist/tex/generic/oberdiek/pdftexcmds.sty
INPUT /usr/local/texlive/2014/texmf-dist/tex/generic/oberdiek/pdftexcmds.sty
INPUT /usr/local/texlive/2014/texmf-dist/tex/generic/oberdiek/ifluatex.sty
INPUT /usr/local/texlive/2014/texmf-dist/tex/generic/oberdiek/ifluatex.sty
INPUT /usr/local/texlive/2014/texmf-dist/tex/latex/oberdiek/epstopdf-base.sty
INPUT /usr/local/texlive/2014/texmf-dist/tex/latex/oberdiek/epstopdf-base.sty
INPUT /usr/local/texlive/2014/texmf-dist/tex/latex/oberdiek/grfext.sty
INPUT /usr/local/texlive/2014/texmf-dist/tex/latex/oberdiek/grfext.sty
INPUT /usr/local/texlive/2014/texmf-dist/tex/generic/oberdiek/kvdefinekeys.sty
INPUT /usr/local/texlive/2014/texmf-dist/tex/generic/oberdiek/kvdefinekeys.sty
INPUT /usr/local/texlive/2014/texmf-dist/tex/latex/oberdiek/kvoptions.sty
INPUT /usr/local/texlive/2014/texmf-dist/tex/latex/oberdiek/kvoptions.sty
INPUT /usr/local/texlive/2014/texmf-dist/tex/generic/oberdiek/kvsetkeys.sty
INPUT /usr/local/texlive/2014/texmf-dist/tex/generic/oberdiek/kvsetkeys.sty
INPUT /usr/local/texlive/2014/texmf-dist/tex/generic/oberdiek/etexcmds.sty
INPUT /usr/local/texlive/2014/texmf-dist/tex/generic/oberdiek/etexcmds.sty
INPUT /usr/local/texlive/2014/texmf-dist/tex/latex/latexconfig/epstopdf-sys.cfg
INPUT /usr/local/texlive/2014/texmf-dist/tex/latex/latexconfig/epstopdf-sys.cfg
INPUT /usr/local/texlive/2014/texmf-dist/tex/latex/europecv/europasslogo.pdf
INPUT /usr/local/texlive/2014/texmf-dist/tex/latex/europecv/europasslogo.pdf
OUTPUT /Users/gpx/GitHub/curriculum-vitae/cv_template_it.pdf
INPUT /usr/local/texlive/2014/texmf-dist/tex/latex/europecv/europasslogo.pdf
INPUT /usr/local/texlive/2014/texmf-dist/tex/latex/ucs/utf8x.def
INPUT /usr/local/texlive/2014/texmf-dist/tex/latex/ucs/utf8x.def
INPUT /usr/local/texlive/2014/texmf-dist/fonts/tfm/adobe/helvetic/phvr8tn.tfm
INPUT /usr/local/texlive/2014/texmf-dist/fonts/tfm/adobe/helvetic/phvb8tn.tfm
INPUT /usr/local/texlive/2014/texmf-dist/tex/latex/europecv/EuropeFlagWB.pdf
INPUT /usr/local/texlive/2014/texmf-dist/tex/latex/europecv/EuropeFlagWB.pdf
INPUT /usr/local/texlive/2014/texmf-dist/tex/latex/europecv/EuropeFlagWB.pdf
INPUT /Users/gpx/GitHub/curriculum-vitae/mypicture.jpg
INPUT /Users/gpx/GitHub/curriculum-vitae/mypicture.jpg
INPUT /Users/gpx/GitHub/curriculum-vitae/mypicture.jpg
INPUT /usr/local/texlive/2014/texmf-dist/fonts/tfm/adobe/helvetic/phvr8tn.tfm
INPUT /usr/local/texlive/2014/texmf-dist/fonts/tfm/adobe/helvetic/phvb8tn.tfm
INPUT /usr/local/texlive/2014/texmf-dist/tex/latex/ucs/utf8x.def
INPUT /usr/local/texlive/2014/texmf-dist/tex/latex/ucs/utf8x.def
INPUT /usr/local/texlive/2014/texmf-dist/tex/latex/ucs/utf8x.def
INPUT /usr/local/texlive/2014/texmf-dist/tex/latex/ucs/utf8x.def
INPUT /usr/local/texlive/2014/texmf-dist/tex/latex/ucs/utf8x.def
INPUT /usr/local/texlive/2014/texmf-dist/tex/latex/ucs/utf8x.def
INPUT /usr/local/texlive/2014/texmf-dist/tex/latex/ucs/utf8x.def
INPUT /usr/local/texlive/2014/texmf-dist/tex/latex/ucs/utf8x.def
INPUT /usr/local/texlive/2014/texmf-dist/tex/latex/ucs/utf8x.def
INPUT /usr/local/texlive/2014/texmf-dist/tex/latex/ucs/utf8x.def
INPUT /usr/local/texlive/2014/texmf-dist/tex/latex/ucs/utf8x.def
INPUT /usr/local/texlive/2014/texmf-dist/tex/latex/ucs/utf8x.def
INPUT /usr/local/texlive/2014/texmf-dist/tex/latex/ucs/utf8x.def
INPUT /usr/local/texlive/2014/texmf-dist/tex/latex/ucs/utf8x.def
INPUT /usr/local/texlive/2014/texmf-dist/tex/latex/ucs/utf8x.def
INPUT /usr/local/texlive/2014/texmf-dist/tex/latex/ucs/utf8x.def
INPUT /usr/local/texlive/2014/texmf-dist/fonts/tfm/adobe/helvetic/phvro8tn.tfm
INPUT /usr/local/texlive/2014/texmf-dist/fonts/tfm/adobe/helvetic/phvb8tn.tfm
INPUT /usr/local/texlive/2014/texmf-dist/tex/latex/ucs/data/uni-32.def
INPUT /usr/local/texlive/2014/texmf-dist/tex/latex/ucs/data/uni-32.def
INPUT /usr/local/texlive/2014/texmf-dist/tex/latex/ucs/utf8x.def
INPUT /usr/local/texlive/2014/texmf-dist/tex/latex/ucs/utf8x.def
INPUT /usr/local/texlive/2014/texmf-dist/fonts/tfm/adobe/helvetic/phvro8tn.tfm
INPUT /usr/local/texlive/2014/texmf-dist/tex/latex/ucs/utf8x.def
INPUT /usr/local/texlive/2014/texmf-dist/tex/latex/ucs/utf8x.def
INPUT /usr/local/texlive/2014/texmf-dist/tex/latex/ucs/utf8x.def
INPUT /usr/local/texlive/2014/texmf-dist/tex/latex/ucs/utf8x.def
INPUT /usr/local/texlive/2014/texmf-dist/fonts/tfm/adobe/helvetic/phvr8tn.tfm
INPUT /usr/local/texlive/2014/texmf-dist/tex/latex/ucs/utf8x.def
INPUT /usr/local/texlive/2014/texmf-dist/tex/latex/ucs/utf8x.def
INPUT /usr/local/texlive/2014/texmf-dist/tex/latex/ucs/utf8x.def
INPUT /usr/local/texlive/2014/texmf-dist/tex/latex/ucs/utf8x.def
INPUT /usr/local/texlive/2014/texmf-dist/tex/latex/ucs/utf8x.def
INPUT /usr/local/texlive/2014/texmf-dist/tex/latex/ucs/utf8x.def
INPUT /usr/local/texlive/2014/texmf-dist/fonts/tfm/adobe/helvetic/phvr8tn.tfm
INPUT /usr/local/texlive/2014/texmf-dist/tex/latex/ucs/utf8x.def
INPUT /usr/local/texlive/2014/texmf-dist/tex/latex/ucs/utf8x.def
INPUT /usr/local/texlive/2014/texmf-dist/tex/latex/ucs/utf8x.def
INPUT /usr/local/texlive/2014/texmf-dist/tex/latex/ucs/utf8x.def
INPUT /usr/local/texlive/2014/texmf-dist/tex/latex/ucs/utf8x.def
INPUT /usr/local/texlive/2014/texmf-dist/tex/latex/ucs/utf8x.def
INPUT /usr/local/texlive/2014/texmf-dist/tex/latex/ucs/utf8x.def
INPUT /usr/local/texlive/2014/texmf-dist/tex/latex/ucs/utf8x.def
INPUT /usr/local/texlive/2014/texmf-dist/fonts/tfm/adobe/helvetic/phvr8tn.tfm
INPUT /usr/local/texlive/2014/texmf-dist/tex/latex/ucs/utf8x.def
INPUT /usr/local/texlive/2014/texmf-dist/tex/latex/ucs/utf8x.def
INPUT /usr/local/texlive/2014/texmf-dist/tex/latex/ucs/utf8x.def
INPUT /usr/local/texlive/2014/texmf-dist/tex/latex/ucs/utf8x.def
INPUT /usr/local/texlive/2014/texmf-dist/tex/latex/ucs/utf8x.def
INPUT /usr/local/texlive/2014/texmf-dist/tex/latex/ucs/utf8x.def
INPUT /usr/local/texlive/2014/texmf-dist/tex/latex/ucs/utf8x.def
INPUT /usr/local/texlive/2014/texmf-dist/tex/latex/ucs/utf8x.def
INPUT /usr/local/texlive/2014/texmf-dist/tex/latex/ucs/utf8x.def
INPUT /usr/local/texlive/2014/texmf-dist/tex/latex/ucs/utf8x.def
INPUT /usr/local/texlive/2014/texmf-dist/fonts/tfm/public/cm/cmr8.tfm
INPUT /usr/local/texlive/2014/texmf-dist/fonts/tfm/public/cm/cmr6.tfm
INPUT /usr/local/texlive/2014/texmf-dist/fonts/tfm/public/cm/cmmi8.tfm
INPUT /usr/local/texlive/2014/texmf-dist/fonts/tfm/public/cm/cmmi6.tfm
INPUT /usr/local/texlive/2014/texmf-dist/fonts/tfm/public/cm/cmsy8.tfm
INPUT /usr/local/texlive/2014/texmf-dist/fonts/tfm/public/cm/cmsy6.tfm
INPUT /usr/local/texlive/2014/texmf-dist/fonts/tfm/adobe/helvetic/phvr8tn.tfm
INPUT /usr/local/texlive/2014/texmf-dist/fonts/tfm/adobe/helvetic/phvro8tn.tfm
INPUT /usr/local/texlive/2014/texmf-dist/tex/latex/ucs/utf8x.def
INPUT /usr/local/texlive/2014/texmf-dist/tex/latex/ucs/utf8x.def
INPUT /usr/local/texlive/2014/texmf-dist/tex/latex/ucs/utf8x.def
INPUT /usr/local/texlive/2014/texmf-dist/tex/latex/ucs/utf8x.def
INPUT /usr/local/texlive/2014/texmf-dist/tex/latex/ucs/utf8x.def
INPUT /usr/local/texlive/2014/texmf-dist/tex/latex/ucs/utf8x.def
INPUT /usr/local/texlive/2014/texmf-dist/tex/latex/psnfss/omsphv.fd
INPUT /usr/local/texlive/2014/texmf-dist/tex/latex/psnfss/omsphv.fd
INPUT /usr/local/texlive/2014/texmf-dist/fonts/vf/adobe/helvetic/phvb8tn.vf
INPUT /usr/local/texlive/2014/texmf-dist/fonts/tfm/adobe/helvetic/phvb8rn.tfm
INPUT /usr/local/texlive/2014/texmf-var/fonts/map/pdftex/updmap/pdftex.map
INPUT /usr/local/texlive/2014/texmf-dist/fonts/vf/adobe/helvetic/phvb8tn.vf
INPUT /usr/local/texlive/2014/texmf-dist/fonts/tfm/adobe/helvetic/phvb8rn.tfm
INPUT /usr/local/texlive/2014/texmf-dist/fonts/vf/adobe/helvetic/phvr8tn.vf
INPUT /usr/local/texlive/2014/texmf-dist/fonts/tfm/adobe/helvetic/phvr8rn.tfm
INPUT /usr/local/texlive/2014/texmf-dist/fonts/vf/adobe/helvetic/phvro8tn.vf
INPUT /usr/local/texlive/2014/texmf-dist/fonts/tfm/adobe/helvetic/phvro8rn.tfm
INPUT /usr/local/texlive/2014/texmf-dist/fonts/vf/adobe/helvetic/phvb8tn.vf
INPUT /usr/local/texlive/2014/texmf-dist/fonts/tfm/adobe/helvetic/phvb8rn.tfm
INPUT /usr/local/texlive/2014/texmf-dist/fonts/vf/adobe/helvetic/phvr8tn.vf
INPUT /usr/local/texlive/2014/texmf-dist/fonts/tfm/adobe/helvetic/phvr8rn.tfm
INPUT /usr/local/texlive/2014/texmf-dist/tex/latex/ucs/data/uni-0.def
INPUT /usr/local/texlive/2014/texmf-dist/tex/latex/ucs/data/uni-0.def
INPUT /usr/local/texlive/2014/texmf-dist/tex/latex/ucs/utf8x.def
INPUT /usr/local/texlive/2014/texmf-dist/tex/latex/ucs/utf8x.def
INPUT /usr/local/texlive/2014/texmf-dist/tex/latex/ucs/utf8x.def
INPUT /usr/local/texlive/2014/texmf-dist/tex/latex/ucs/utf8x.def
INPUT /usr/local/texlive/2014/texmf-dist/fonts/vf/adobe/helvetic/phvr8tn.vf
INPUT /usr/local/texlive/2014/texmf-dist/fonts/tfm/adobe/helvetic/phvr8rn.tfm
INPUT /usr/local/texlive/2014/texmf-dist/fonts/vf/adobe/helvetic/phvro8tn.vf
INPUT /usr/local/texlive/2014/texmf-dist/fonts/tfm/adobe/helvetic/phvro8rn.tfm
INPUT /usr/local/texlive/2014/texmf-dist/fonts/vf/adobe/helvetic/phvr8tn.vf
INPUT /usr/local/texlive/2014/texmf-dist/fonts/tfm/adobe/helvetic/phvr8rn.tfm
INPUT /usr/local/texlive/2014/texmf-dist/fonts/vf/adobe/helvetic/phvr8tn.vf
INPUT /usr/local/texlive/2014/texmf-dist/fonts/tfm/adobe/helvetic/phvr8rn.tfm
INPUT /usr/local/texlive/2014/texmf-dist/fonts/vf/adobe/helvetic/phvr8tn.vf
INPUT /usr/local/texlive/2014/texmf-dist/fonts/tfm/adobe/helvetic/phvr8rn.tfm
INPUT /usr/local/texlive/2014/texmf-dist/fonts/vf/adobe/helvetic/phvro8tn.vf
INPUT /usr/local/texlive/2014/texmf-dist/fonts/tfm/adobe/helvetic/phvro8rn.tfm
INPUT /Users/gpx/GitHub/curriculum-vitae/cv_template_it.aux
INPUT /usr/local/texlive/2014/texmf-dist/fonts/enc/dvips/base/8r.enc
INPUT /usr/local/texlive/2014/texmf-dist/fonts/type1/public/amsfonts/cm/cmsy8.pfb
INPUT /usr/local/texlive/2014/texmf-dist/fonts/type1/urw/helvetic/uhvb8ac.pfb
INPUT /usr/local/texlive/2014/texmf-dist/fonts/type1/urw/helvetic/uhvr8ac.pfb
INPUT /usr/local/texlive/2014/texmf-dist/fonts/type1/urw/helvetic/uhvro8ac.pfb
